module bitbucket.org/zvaz/shady/shady

require (
	github.com/fsnotify/fsnotify v1.4.7
	github.com/go-gl/gl v0.0.0-20180407155706-68e253793080
	github.com/mjibson/go-dsp v0.0.0-20180508042940-11479a337f12
	github.com/tarm/serial v0.0.0-20180114052751-eaafced92e96
	golang.org/x/sys v0.0.0-20180606202747-9527bec2660b // indirect
)
